{
  "count": 73,
  "next": "http://localhost:8000/api/accounts?page=2&q=",
  "previous": null,
  "results": [
    {
      "username": "0FfgXHyCGQURLYi8L6nkgDMweV2cLnIuvXxnNWeONuKUAxuRYzdaE1Wutn3CHwJYRJuq8OP88OzEdKCli01FyyDa9TxqRhCH41E1",
      "bio": "Aliquet nec ullamcorper sit amet. Risus sed vulputate odio ut enim blandit. Arcu felis bibendum ut tristique et egestas quis ipsum suspendisse. Lacus laoreet non curabitur gravida arcu ac. Sit amet porttitor eget dolor. Convallis aenean et tortor at risus viverra. Eget duis at tellus at. Nunc sed blandit libero volutpat sed cras. Consequat ac felis donec et odio pellentesque diam volutpat. Sapien pellentesque habitant morbi tristique senectus. At in tellus integer feugiat scelerisque varius morb",
      "picture": null,
      "badges": []
    },
    {
      "username": "24gVNNWwYpYvPuq7myHCaMBo2b9dh341fAbFBzyeHUVGS8eGpZbiUfw05wAeWb43t30AtGHM4T6QNLSEEpba4u1cH5exGCmO60lJ",
      "bio": "Suspendisse interdum consectetur libero id. Velit ut tortor pretium viverra suspendisse potenti nullam ac. Dolor purus non enim praesent elementum facilisis. Ipsum dolor sit amet consectetur. Nisl purus in mollis nunc sed id semper risus. Lacus laoreet non curabitur gravida arcu. Porta nibh venenatis cras sed felis eget velit. Neque laoreet suspendisse interdum consectetur libero id. Morbi tempus iaculis urna id volutpat. Adipiscing elit pellentesque habitant morbi tristique. A erat nam at lectu",
      "picture": null,
      "badges": []
    },
    {
      "username": "2engB3m3DPKOD0PHEybsapLyjBungsD1WWRRcLApbqhmLF9wLpPLWiethxp0SVRnJU6FH3wqK6sx6tpnLn8uA3R7Wfzcxmn7pw5k",
      "bio": "Risus nec feugiat in fermentum posuere urna. Quisque non tellus orci ac. Ornare aenean euismod elementum nisi quis eleifend. Nam aliquam sem et tortor consequat id porta nibh. Tincidunt tortor aliquam nulla facilisi cras fermentum odio eu. Elementum integer enim neque volutpat ac tincidunt vitae semper quis. Suspendisse interdum consectetur libero id faucibus nisl tincidunt eget. Urna nec tincidunt praesent semper feugiat nibh sed pulvinar proin. In ornare quam viverra orci sagittis eu volutpat",
      "picture": null,
      "badges": []
    },
    {
      "username": "300qAA7AFhgFspScn",
      "bio": "LJ6bkAoST4rBgMFo4I0zUS0XQb4tZV2pcxRtOTMn8ofVHmDslPgRKHbLzCPZK6qA4QC6slnPrFcCYKp1Wo2Km",
      "picture": null,
      "badges": []
    },
    {
      "username": "4m7ug4HQdCGL7PjUT8mRFQVK9vyouHmIHkodniEPU1gS2kAx0frmZPtLPie9aW437uyf15oV6w9hbmLhCFpvLOFAfoKPxlwtFwZb",
      "bio": "Consequat id porta nibh venenatis cras sed. Amet venenatis urna cursus eget nunc scelerisque viverra mauris in. Tincidunt lobortis feugiat vivamus at augue eget arcu dictum. Pretium viverra suspendisse potenti nullam ac tortor vitae. Vel risus commodo viverra maecenas. Potenti nullam ac tortor vitae. Nascetur ridiculus mus mauris vitae. Orci sagittis eu volutpat odio facilisis mauris. Et tortor consequat id porta nibh venenatis. Nullam eget felis eget nunc lobortis mattis aliquam. Penatibus et m",
      "picture": null,
      "badges": []
    },
    {
      "username": "5AXuWjPJ7b6V9Q3oImtWAEiDCJ3t2bKaNAcRTt1N1gA4pPpKK9qJNf4GCWsmbvgU0324n4actrLj2Hd7te5y8kVoTdBJ2h1ERvMz",
      "bio": "",
      "picture": null,
      "badges": []
    },
    {
      "username": "7C1Mw195xVO5hCtKtfezJNhJtuA6XUBgnpvRiispBGW0yBuGnackUY9AstdIkl0GUmgExFB4sYjP1sSn6qmGwJspV3JUash2PUWP",
      "bio": "",
      "picture": null,
      "badges": []
    },
    {
      "username": "7kpnYoYLaH11i60fWAShVIfIp3LitTXnaic8LcyRBiO7QzO71bhmgg1LD1fJehP8mHAwk6VVgyQxnoehK1cSLT5ScagXS7U0cFbu",
      "bio": "",
      "picture": null,
      "badges": []
    },
    {
      "username": "A9AyGWOhrgXvxT5C8wX9N",
      "bio": "lD8VKT0jifGrTnhnafYlOqNXg4UJOkoLuHW7MLB44aCw92OuyDJIt2pA0IEPiFVkPPMAc06eD68BPi2lb7pSBkowksKvRwaGh8ttAYjgRYxpU8s8v4dOFPGTb1GPn0h6hhsDvV8ByFl3t1zrCs9aMgGbdqCMWjbxpcKjiKsHqtQWGwHpbEkr5yfRQ1TBEg0HQ0Pvay0GGoPH2dBbfi4jNzEdtu5uwJ",
      "picture": null,
      "badges": []
    },
    { "username": "Alanzoka", "bio": "", "picture": null, "badges": [] }
  ]
}
