{
  "count": 13,
  "next": "http://localhost:8000/api/words/favorite-words?English=true&French=true&German=true&Spanish=true&page=2&search=",
  "previous": null,
  "results": [
    {
      "id": 126,
      "language": "German",
      "image": null,
      "is_favorite": true,
      "word_name": "Alptraum",
      "article": 13,
      "synonyms": [122, 123, 124, 125]
    },
    {
      "id": 4,
      "language": "French",
      "image": null,
      "is_favorite": true,
      "word_name": "ami",
      "article": 16,
      "synonyms": [1, 2, 3, 5]
    },
    {
      "id": 19,
      "language": "English",
      "category": "nature",
      "image": null,
      "is_favorite": true,
      "word_name": "animal",
      "article": 1,
      "synonyms": [18, 20, 21, 22]
    },
    {
      "id": 20,
      "language": "Spanish",
      "category": "nature",
      "image": null,
      "is_favorite": true,
      "word_name": "animal",
      "article": 9,
      "synonyms": [18, 19, 21, 22]
    },
    {
      "id": 86,
      "language": "German",
      "category": "nature",
      "image": null,
      "is_favorite": true,
      "word_name": "Blume",
      "article": 14,
      "synonyms": [82, 83, 84, 85]
    },
    {
      "id": 29,
      "language": "English",
      "image": null,
      "is_favorite": true,
      "word_name": "book",
      "article": 1,
      "synonyms": [28, 30, 31, 32]
    },
    {
      "id": 25,
      "language": "Spanish",
      "category": "food",
      "image": null,
      "is_favorite": true,
      "word_name": "café",
      "article": 9,
      "synonyms": [23, 24, 26, 27]
    },
    {
      "id": 26,
      "language": "French",
      "category": "food",
      "image": null,
      "is_favorite": true,
      "word_name": "café",
      "article": 6,
      "synonyms": [23, 24, 25, 27]
    },
    {
      "id": 94,
      "language": "Spanish",
      "image": null,
      "is_favorite": true,
      "word_name": "ciudad",
      "article": 10,
      "synonyms": [92, 93, 95, 96]
    },
    {
      "id": 34,
      "language": "English",
      "category": "nature",
      "image": "/media/images/models/Word/34/dog.jpg",
      "is_favorite": true,
      "word_name": "dog",
      "article": 1,
      "synonyms": [33, 35, 36, 37]
    },
    {
      "id": 41,
      "language": "French",
      "category": "food",
      "image": null,
      "is_favorite": true,
      "word_name": "nourriture",
      "article": 7,
      "synonyms": [38, 39, 40, 42]
    },
    {
      "id": 129,
      "language": "Spanish",
      "image": "/media/images/models/Word/129/clown.jpg",
      "is_favorite": true,
      "word_name": "payaso",
      "article": 9,
      "synonyms": [127, 128, 130, 131]
    }
  ]
}
